<?xml version="1.0" encoding="utf-8"?>
<!-- Generator: Adobe Illustrator 22.0.1, SVG Export Plug-In . SVG Version: 6.00 Build 0)  -->
<svg version="1.1" id="Layer_1" xmlns="http://www.w3.org/2000/svg" xmlns:xlink="http://www.w3.org/1999/xlink" x="0px" y="0px"
	 viewBox="0 0 1080 1080" style="enable-background:new 0 0 1080 1080;" xml:space="preserve">
<style type="text/css">
	.st0{fill:#FFFFFF;}
	.st1{opacity:0.4;enable-background:new    ;}
	.st2{enable-background:new    ;}
	.st3{fill:#2CB1FF;}
</style>
<g id="Layer_1_1_">
</g>
<g id="corners">
	<polygon class="st0" points="65,66 65,161 84,142 84,86 139,86 159,67 	"/>
	<polygon class="st0" points="1017,67 922,67 941,86 997,86 997,141 1016,161 	"/>
	<polygon class="st0" points="1017,1016 1017,921 998,940 998,996 943,996 923,1015 	"/>
	<polygon class="st0" points="64,1016 159,1016 140,997 84,997 84,942 65,922 	"/>
	<rect x="687" y="306" class="st1" width="393" height="345"/>
	<g class="st2">
		<path class="st0" d="M810,338.9c0.9,0,1.5,0.6,1.5,1.5v72.2c0,0.9-0.6,1.5-1.5,1.5h-9.8c-1,0-1.5-0.6-1.5-1.5v-72.2
			c0-0.9,0.5-1.5,1.5-1.5H810z"/>
		<path class="st0" d="M820.9,340.8c0-1.2,0.7-1.9,1.9-1.9h8.6c1.2,0,1.9,0.7,1.9,1.9v9.2c0,0.9-0.2,1.6-0.7,2.3l-5.1,7.7
			c-0.3,0.5-0.6,0.7-1.1,0.7h-4.2c-0.8,0-1-0.5-0.8-1.1l3.8-8.3h-2.3c-1.2,0-1.9-0.7-1.9-1.9V340.8z"/>
		<path class="st0" d="M894.3,338.9c1.2,0,1.9,0.7,1.9,1.9v71.4c0,1.2-0.7,1.9-1.9,1.9h-8.7c-1.2,0-1.9-0.7-1.9-1.9v-42.3h-0.7
			l-9.3,42.5c-0.3,1.1-0.9,1.7-2.1,1.7h-4.6c-1.1,0-1.8-0.6-2.1-1.7l-9.3-42.5H855v42.3c0,1.2-0.7,1.9-1.9,1.9h-8.6
			c-1.2,0-1.9-0.7-1.9-1.9v-71.4c0-1.2,0.7-1.9,1.9-1.9h12.4c1.1,0,1.8,0.6,2.1,1.7l10.4,46.8l10.4-46.8c0.3-1.1,0.9-1.7,2.1-1.7
			H894.3z"/>
		<path class="st0" d="M964.5,414.1c-0.8,0-1.3-0.5-1.5-1.3l-2.6-13.7h-16.7l-2.5,13.7c-0.2,0.8-0.7,1.3-1.5,1.3h-10.1
			c-1,0-1.5-0.6-1.2-1.6l15.6-72.3c0.2-0.9,0.8-1.3,1.6-1.3h13.1c0.8,0,1.4,0.4,1.6,1.3l15.6,72.3c0.2,1-0.2,1.6-1.3,1.6H964.5z
			 M952,355.4l-6,32.8h12L952,355.4z"/>
	</g>
	<g class="st2">
		<path class="st3" d="M802.4,473.4c0,6.3-2.3,10.4-6.9,12.4l6.5,24.6c0.3,1.1-0.3,1.7-1.3,1.7h-9.8c-0.9,0-1.4-0.5-1.6-1.3
			l-6.3-23.9h-6.5v23.7c0,0.9-0.6,1.5-1.5,1.5h-9.8c-0.9,0-1.5-0.6-1.5-1.5v-72.2c0-0.9,0.6-1.5,1.5-1.5h23.6
			c8.8,0,13.5,4.7,13.5,13.5V473.4z M785.8,474.5c2.4,0,3.8-1.3,3.8-3.8v-17.7c0-2.4-1.3-3.8-3.8-3.8h-9.3v25.2H785.8z"/>
		<path class="st3" d="M849.3,447.8c0,0.9-0.4,1.6-1.5,1.6h-23.5v18.8h18c0.9,0,1.5,0.6,1.5,1.6v9.3c0,1-0.6,1.6-1.5,1.6h-18v19
			h23.5c1.1,0,1.5,0.5,1.5,1.5v9.4c0,0.9-0.4,1.5-1.5,1.5h-34.6c-0.8,0-1.4-0.6-1.4-1.5v-72.2c0-0.9,0.6-1.5,1.4-1.5h34.6
			c1.1,0,1.5,0.6,1.5,1.5V447.8z"/>
		<path class="st3" d="M871.5,499.7h22.4c1,0,1.5,0.6,1.5,1.5v9.4c0,1-0.5,1.5-1.5,1.5h-33.6c-0.9,0-1.5-0.5-1.5-1.5v-72.2
			c0-0.9,0.6-1.5,1.5-1.5h9.8c1,0,1.5,0.6,1.5,1.5V499.7z"/>
		<path class="st3" d="M914.1,436.9c0.9,0,1.5,0.6,1.5,1.5v72.2c0,0.9-0.6,1.5-1.5,1.5h-9.8c-1,0-1.5-0.6-1.5-1.5v-72.2
			c0-0.9,0.5-1.5,1.5-1.5H914.1z"/>
		<path class="st3" d="M962.5,447.8c0,0.9-0.4,1.6-1.5,1.6h-23.5v18.8h18c0.9,0,1.5,0.6,1.5,1.6v9.3c0,1-0.6,1.6-1.5,1.6h-18v19H961
			c1.1,0,1.5,0.5,1.5,1.5v9.4c0,0.9-0.4,1.5-1.5,1.5h-34.6c-0.8,0-1.4-0.6-1.4-1.5v-72.2c0-0.9,0.6-1.5,1.4-1.5H961
			c1.1,0,1.5,0.6,1.5,1.5V447.8z"/>
		<path class="st3" d="M1009.5,447.8c0,0.9-0.6,1.5-1.5,1.5h-23.3v18.9h17.7c0.9,0,1.5,0.6,1.5,1.5v9.4c0,1-0.6,1.5-1.5,1.5h-17.7
			v30c0,0.9-0.6,1.5-1.5,1.5h-9.8c-1,0-1.5-0.6-1.5-1.5v-72.2c0-0.9,0.5-1.5,1.5-1.5h34.6c0.9,0,1.5,0.6,1.5,1.5V447.8z"/>
	</g>
	<g class="st2">
		<path class="st0" d="M783.5,534.9c1.2,0,1.9,0.8,1.8,2l-8.1,71.4c-0.1,1.2-0.8,1.8-2,1.8H766c-1.1,0-1.8-0.6-2.1-1.7l-9.8-42.5
			l-9.9,42.6c-0.3,1-0.9,1.6-2.1,1.6h-9.4c-1.2,0-1.9-0.6-2-1.8l-7.7-71.4c-0.1-1.2,0.6-2,1.8-2h8.9c1.1,0,1.9,0.7,2,1.8l3.7,44h0.5
			l9.3-44.1c0.3-1.1,0.9-1.7,2.1-1.7h5.6c1.1,0,1.8,0.6,2.1,1.7l9.2,44.1h0.5l3.9-44c0.1-1.1,0.8-1.8,2-1.8H783.5z"/>
		<path class="st0" d="M822.5,610.1c-0.8,0-1.3-0.5-1.5-1.3l-2.6-13.7h-16.7l-2.5,13.7c-0.2,0.8-0.7,1.3-1.5,1.3h-10.1
			c-1,0-1.5-0.6-1.2-1.6l15.6-72.3c0.2-0.9,0.8-1.3,1.6-1.3h13.1c0.8,0,1.4,0.4,1.6,1.3l15.6,72.3c0.2,1-0.2,1.6-1.3,1.6H822.5z
			 M810,551.4l-6,32.8h12L810,551.4z"/>
		<path class="st0" d="M880.9,571.4c0,6.3-2.3,10.4-6.9,12.4l6.5,24.6c0.3,1.1-0.3,1.7-1.3,1.7h-9.8c-0.9,0-1.4-0.5-1.6-1.3
			l-6.3-23.9H855v23.7c0,0.9-0.6,1.5-1.5,1.5h-9.8c-0.9,0-1.5-0.6-1.5-1.5v-72.2c0-0.9,0.6-1.5,1.5-1.5h23.6
			c8.8,0,13.5,4.7,13.5,13.5V571.4z M864.3,572.5c2.4,0,3.8-1.3,3.8-3.8v-17.7c0-2.4-1.3-3.8-3.8-3.8H855v25.2H864.3z"/>
		<path class="st0" d="M928.9,571.4c0,6.3-2.4,10.4-6.9,12.4l6.5,24.6c0.3,1.1-0.3,1.7-1.3,1.7h-9.8c-0.9,0-1.4-0.5-1.6-1.3
			l-6.3-23.9h-6.5v23.7c0,0.9-0.6,1.5-1.5,1.5h-9.8c-0.9,0-1.5-0.6-1.5-1.5v-72.2c0-0.9,0.6-1.5,1.5-1.5h23.6
			c8.8,0,13.5,4.7,13.5,13.5V571.4z M912.4,572.5c2.4,0,3.8-1.3,3.8-3.8v-17.7c0-2.4-1.3-3.8-3.8-3.8h-9.3v25.2H912.4z"/>
		<path class="st0" d="M949.6,534.9c0.9,0,1.5,0.6,1.5,1.5v72.2c0,0.9-0.6,1.5-1.5,1.5h-9.8c-1,0-1.5-0.6-1.5-1.5v-72.2
			c0-0.9,0.5-1.5,1.5-1.5H949.6z"/>
		<path class="st0" d="M960.5,548.4c0-8.8,4.7-13.5,13.5-13.5h10.5c8.8,0,13.5,4.7,13.5,13.5v48.1c0,8.8-4.7,13.5-13.5,13.5H974
			c-8.8,0-13.5-4.7-13.5-13.5V548.4z M982.2,598c2.4,0,3.8-1.2,3.8-3.8v-43.4c0-2.4-1.3-3.8-3.8-3.8h-5.5c-2.4,0-3.8,1.3-3.8,3.8
			v43.4c0,2.5,1.3,3.8,3.8,3.8H982.2z"/>
		<path class="st0" d="M1046.1,571.4c0,6.3-2.3,10.4-6.9,12.4l6.5,24.6c0.3,1.1-0.3,1.7-1.3,1.7h-9.8c-0.9,0-1.4-0.5-1.6-1.3
			l-6.3-23.9h-6.5v23.7c0,0.9-0.6,1.5-1.5,1.5h-9.8c-0.9,0-1.5-0.6-1.5-1.5v-72.2c0-0.9,0.6-1.5,1.5-1.5h23.6
			c8.8,0,13.5,4.7,13.5,13.5V571.4z M1029.6,572.5c2.4,0,3.8-1.3,3.8-3.8v-17.7c0-2.4-1.3-3.8-3.8-3.8h-9.3v25.2H1029.6z"/>
	</g>
</g>
</svg>
