<?xml version="1.0" encoding="utf-8"?>
<!-- Generator: Adobe Illustrator 22.0.1, SVG Export Plug-In . SVG Version: 6.00 Build 0)  -->
<svg version="1.1" id="corners" xmlns="http://www.w3.org/2000/svg" xmlns:xlink="http://www.w3.org/1999/xlink" x="0px" y="0px"
	 viewBox="0 0 1080 1080" style="enable-background:new 0 0 1080 1080;" xml:space="preserve">
<style type="text/css">
	.st0{fill:#FFFFFF;}
	.st1{enable-background:new    ;}
</style>
<polygon class="st0" points="64.5,65.5 64.5,160.5 83.5,141.5 83.5,85.5 138.5,85.5 158.5,66.5 "/>
<polygon class="st0" points="1017,67 922,67 941,86 997,86 997,141 1016,161 "/>
<polygon class="st0" points="1017,1016 1017,921 998,940 998,996 943,996 923,1015 "/>
<polygon class="st0" points="64,1016 159,1016 140,997 84,997 84,942 65,922 "/>
<g class="st1">
	<path class="st0" d="M240,793.1c-1.4,0-2-0.7-2-2v-82.8c0-1.2,0.6-2,2-2h12.9c1.2,0,2,0.7,2,2v82.8c0,1.2-0.7,2-2,2H240z"/>
	<path class="st0" d="M323,708.3c0-1.2,0.7-2,2-2h12.8c1.5,0,2.1,0.7,2.1,2v82.8c0,1.2-0.6,2-2.1,2H325c-1.2,0-2-0.7-2-2v-33h-15.9
		v33c0,1.2-0.7,2-2,2h-12.8c-1.5,0-2.1-0.7-2.1-2v-82.8c0-1.2,0.6-2,2.1-2h12.8c1.2,0,2,0.7,2,2v33.5H323V708.3z"/>
	<path class="st0" d="M397.8,720.7c0,1.2-0.5,2.1-2,2.1h-30.6v19.1h23.3c1.2,0,2,0.7,2,2.1v12.3c0,1.4-0.7,2.1-2,2.1h-23.3v18.4
		h30.6c1.5,0,2,0.6,2,2v12.4c0,1.2-0.5,2-2,2h-45.6c-1.1,0-1.9-0.7-1.9-2v-82.8c0-1.2,0.7-2,1.9-2h45.6c1.5,0,2,0.7,2,2V720.7z"/>
	<path class="st0" d="M423.1,776.7h24.6c1.4,0,2,0.7,2,2v12.4c0,1.4-0.6,2-2,2h-39.4c-1.2,0-2-0.6-2-2v-82.8c0-1.2,0.7-2,2-2h12.9
		c1.4,0,2,0.7,2,2V776.7z"/>
	<path class="st0" d="M458.1,708.3c0-1.2,0.7-2,2-2h29.8c11.7,0,17.9,6.2,17.9,17.9v24.3c0,11.5-6.2,17.7-17.9,17.9l-15.6,0.1v24.8
		c0,1.2-0.6,2-2,2l-12.2-0.1c-1.2,0-2-0.7-2-2V708.3z M486.6,750.3c3.3,0,5-1.9,5-5v-18.1c0-3.2-1.6-5-5-5l-12.4,0.1v28L486.6,750.3
		z"/>
	<path class="st0" d="M565.6,720.7c0,1.2-0.5,2.1-2,2.1H533v19.1h23.3c1.2,0,2,0.7,2,2.1v12.3c0,1.4-0.7,2.1-2,2.1H533v18.4h30.6
		c1.5,0,2,0.6,2,2v12.4c0,1.2-0.5,2-2,2H518c-1.1,0-1.9-0.7-1.9-2v-82.8c0-1.2,0.7-2,1.9-2h45.6c1.5,0,2,0.7,2,2V720.7z"/>
	<path class="st0" d="M574,708.3c0-1.2,0.6-2,2-2h29.8c11.7,0,17.9,6.3,17.9,18v51c0,11.7-6.2,17.9-17.9,17.9H576c-1.4,0-2-0.6-2-2
		V708.3z M602.3,776.7c3.2,0,5-1.6,5-5v-44c0-3.3-1.7-5.1-5-5.1h-11.4v54.1H602.3z"/>
	<path class="st0" d="M704.2,706.3c1.4,0,2,0.7,2,2v12.4c0,1.2-0.6,2-2,2h-14.4v68.4c0,1.4-0.6,2-2,2h-12.9c-1.2,0-2-0.6-2-2v-68.4
		h-14.4c-1.2,0-2-0.7-2-2v-12.4c0-1.2,0.7-2,2-2H704.2z"/>
	<path class="st0" d="M744.9,708.3c0-1.2,0.7-2,2-2h12.8c1.5,0,2.1,0.7,2.1,2v82.8c0,1.2-0.6,2-2.1,2h-12.8c-1.2,0-2-0.7-2-2v-33
		H729v33c0,1.2-0.7,2-2,2h-12.8c-1.5,0-2.1-0.7-2.1-2v-82.8c0-1.2,0.6-2,2.1-2H727c1.2,0,2,0.7,2,2v33.5h15.9V708.3z"/>
	<path class="st0" d="M819.7,720.7c0,1.2-0.5,2.1-2,2.1H787v19.1h23.3c1.2,0,2,0.7,2,2.1v12.3c0,1.4-0.7,2.1-2,2.1H787v18.4h30.6
		c1.5,0,2,0.6,2,2v12.4c0,1.2-0.5,2-2,2H772c-1.1,0-1.9-0.7-1.9-2v-82.8c0-1.2,0.7-2,1.9-2h45.6c1.5,0,2,0.7,2,2V720.7z"/>
</g>
<g class="st1">
	<path class="st0" d="M128.3,869.1c0,7.2-2.4,12.3-6.9,15.1l6.4,26.7c0.4,1.5-0.4,2.2-1.7,2.2h-12.2c-1.2,0-1.9-0.6-2.1-1.7l-6-24.4
		h-11v24.2c0,1.2-0.7,2-2,2H80.7c-1.2,0-2-0.7-2-2v-82.8c0-1.2,0.7-2,2-2h29.8c11.7,0,17.9,6.2,17.9,17.9V869.1z M107.2,870.9
		c3.2,0,5-1.7,5-5v-18.7c0-3.2-1.7-5-5-5H94.8v28.6H107.2z"/>
	<path class="st0" d="M136.7,844.1c0-11.7,6.2-17.9,17.9-17.9h13.9c11.7,0,17.9,6.2,17.9,17.9v51.1c0,11.7-6.2,17.9-17.9,17.9h-13.9
		c-11.7,0-17.9-6.2-17.9-17.9V844.1z M165.7,897.1c3.2,0,5-1.6,5-5v-44.9c0-3.2-1.7-5-5-5h-7.9c-3.2,0-5,1.7-5,5v44.9
		c0,3.3,1.7,5,5,5H165.7z"/>
	<path class="st0" d="M227.5,828.3c0-1.2,0.7-2,2-2h12.8c1.5,0,2.1,0.7,2.1,2v82.8c0,1.2-0.6,2-2.1,2h-12.8c-1.2,0-2-0.7-2-2v-33
		h-15.9v33c0,1.2-0.7,2-2,2h-12.8c-1.5,0-2.1-0.7-2.1-2v-82.8c0-1.2,0.6-2,2.1-2h12.8c1.2,0,2,0.7,2,2v33.5h15.9V828.3z"/>
	<path class="st0" d="M254.8,913.1c-1.4,0-2-0.7-2-2v-82.8c0-1.2,0.6-2,2-2h12.9c1.2,0,2,0.7,2,2v82.8c0,1.2-0.7,2-2,2H254.8z"/>
	<path class="st0" d="M329,826.3c1.2,0,2,0.7,2,2v82.8c0,1.2-0.7,2-2,2h-9.8c-1.1,0-1.7-0.5-2.2-1.6l-23.3-47.4v47c0,1.2-0.6,2-2,2
		h-11.7c-1.2,0-2-0.7-2-2v-82.8c0-1.2,0.7-2,2-2h9.8c1.1,0,1.7,0.5,2.2,1.6l23.3,47.4v-47c0-1.2,0.6-2,2-2H329z"/>
	<path class="st0" d="M339.4,844.1c0-11.7,6.2-17.9,17.9-17.9h13.9c11.5,0,17.9,6.2,17.9,17.9v9.2c0,1.2-0.7,2-2,2h-11.7
		c-1.4,0-2-0.7-2-2v-6.1c0-3.2-1.7-5-5-5h-7.9c-3.3,0-5,1.7-5,5v44.9c0,3.3,1.7,5,5,5h7.9c3.2,0,5-1.6,5-5v-10.8H367
		c-1.4,0-2-0.7-2-2V867c0-1.4,0.6-2,2-2h20.1c1.2,0,2,0.6,2,2v28.3c0,11.7-6.3,17.9-17.9,17.9h-13.9c-11.7,0-17.9-6.2-17.9-17.9
		V844.1z"/>
	<path class="st0" d="M445.6,826.3c1.9,0,2.7,1.2,2,2.9l-22.7,51.5v30c0,1.6-0.9,2.5-2.5,2.5h-11.9c-1.6,0-2.5-0.9-2.5-2.5v-30
		l-22.7-51.5c-0.7-1.6,0.1-2.9,2-2.9h12.4c1.5,0,2.4,0.7,2.9,2l13.9,31.9l13.9-31.9c0.5-1.2,1.4-2,2.9-2H445.6z"/>
	<path class="st0" d="M486.6,913.1c-1.1,0-1.7-0.6-2-1.7l-4-15.6h-23.3l-3.8,15.6c-0.2,1.1-0.9,1.7-2,1.7h-12.2
		c-1.4,0-2-0.7-1.6-2.1l20.6-83c0.2-1.2,1-1.7,2.1-1.7h17.2c1.1,0,1.9,0.5,2.1,1.7l20.6,83c0.4,1.4-0.2,2.1-1.7,2.1H486.6z
		 M469,847.6l-7.8,33.7h15.6L469,847.6z"/>
	<path class="st0" d="M583.1,869.1c0,7.2-2.4,12.3-6.9,15.1l6.4,26.7c0.4,1.5-0.4,2.2-1.7,2.2h-12.2c-1.2,0-1.9-0.6-2.1-1.7l-6-24.4
		h-11v24.2c0,1.2-0.7,2-2,2h-12.2c-1.2,0-2-0.7-2-2v-82.8c0-1.2,0.7-2,2-2h29.8c11.7,0,17.9,6.2,17.9,17.9V869.1z M562,870.9
		c3.2,0,5-1.7,5-5v-18.7c0-3.2-1.7-5-5-5h-12.4v28.6H562z"/>
	<path class="st0" d="M641,840.7c0,1.2-0.5,2.1-2,2.1h-30.6v19.1h23.3c1.2,0,2,0.7,2,2.1v12.3c0,1.4-0.7,2.1-2,2.1h-23.3v18.4H639
		c1.5,0,2,0.6,2,2v12.4c0,1.2-0.5,2-2,2h-45.6c-1.1,0-1.9-0.7-1.9-2v-82.8c0-1.2,0.7-2,1.9-2H639c1.5,0,2,0.7,2,2V840.7z"/>
	<path class="st0" d="M699,840.7c0,1.2-0.7,2-2,2h-30.8v21.2h23.3c1.2,0,2,0.7,2,2v12.4c0,1.4-0.7,2-2,2h-23.3v30.9c0,1.2-0.7,2-2,2
		h-12.9c-1.4,0-2-0.7-2-2v-82.8c0-1.2,0.6-2,2-2h45.6c1.2,0,2,0.7,2,2V840.7z"/>
	<path class="st0" d="M754.6,826.3c1.4,0,2.5,1.1,2.5,2.5v66.5c0,11.7-6.2,17.9-17.9,17.9h-13.9c-11.7,0-17.9-6.2-17.9-17.9v-66.5
		c0-1.4,1.1-2.5,2.5-2.5h11.9c1.4,0,2.5,1.1,2.5,2.5v63c0,3.3,1.7,5,5,5h6.4c3.2,0,5-1.6,5-5v-63c0-1.4,1.1-2.5,2.5-2.5H754.6z"/>
	<path class="st0" d="M765.5,844.1c0-11.7,6.2-17.9,17.9-17.9h13.9c11.5,0,17.9,6.2,17.9,17.9v9.2c0,1.2-0.7,2-2,2h-11.7
		c-1.4,0-2-0.7-2-2v-6.1c0-3.2-1.7-5-5-5h-7.9c-3.3,0-5,1.7-5,5v44.9c0,3.3,1.7,5,5,5h7.9c3.2,0,5-1.6,5-5v-10.8H793
		c-1.4,0-2-0.7-2-2V867c0-1.4,0.6-2,2-2h20.1c1.2,0,2,0.6,2,2v28.3c0,11.7-6.3,17.9-17.9,17.9h-13.9c-11.7,0-17.9-6.2-17.9-17.9
		V844.1z"/>
	<path class="st0" d="M873,840.7c0,1.2-0.5,2.1-2,2.1h-30.6v19.1h23.3c1.2,0,2,0.7,2,2.1v12.3c0,1.4-0.7,2.1-2,2.1h-23.3v18.4H871
		c1.5,0,2,0.6,2,2v12.4c0,1.2-0.5,2-2,2h-45.6c-1.1,0-1.9-0.7-1.9-2v-82.8c0-1.2,0.7-2,1.9-2H871c1.5,0,2,0.7,2,2V840.7z"/>
	<path class="st0" d="M930.9,840.7c0,1.2-0.5,2.1-2,2.1h-30.6v19.1h23.3c1.2,0,2,0.7,2,2.1v12.3c0,1.4-0.7,2.1-2,2.1h-23.3v18.4
		h30.6c1.5,0,2,0.6,2,2v12.4c0,1.2-0.5,2-2,2h-45.6c-1.1,0-1.9-0.7-1.9-2v-82.8c0-1.2,0.7-2,1.9-2h45.6c1.5,0,2,0.7,2,2V840.7z"/>
	<path class="st0" d="M967.4,826.3c11.7,0,17.9,6.2,17.9,17.9v8.2c0,1.2-0.6,2-2,2h-12.5c-1.2,0-2-0.7-2-2v-5.2c0-3.2-1.6-5-5-5H957
		c-3.1,0-5,1.7-5,5v10.5l30,9.7c2.1,0.7,3.2,2.2,3.2,4.6v23.3c0,11.7-6.2,17.9-17.9,17.9h-13.9c-11.5,0-17.9-6.2-17.9-17.9v-8.1
		c0-1.4,0.7-2,2-2h12.5c1.4,0,2,0.6,2,2v5.2c0,3.3,1.9,5,5,5h6.7c3.2,0,5-1.6,5-5v-12.5l-29.8-9.7c-2.2-0.7-3.3-2.2-3.3-4.6v-21.5
		c0-11.7,6.3-17.9,17.9-17.9H967.4z"/>
</g>
</svg>
